An (opinionated) introduction to R for biologists
…
We saw previously that the CT column is a character column. It should be a numeric instead. At least based on this qPCR machine, sometimes the CT will be set to Undetermined, so we actually need to replace it to an NA and then convert the column to numeric.

qpcr <- qpcr %>% 
    dplyr::mutate(ct = ifelse(
        ct == "Undetermined",
        NA, 
        ct
    )) %>% 
    dplyr::mutate(ct = as.numeric(ct))

qpcr

# A tibble: 180 × 6
    well well_position omit  sample_name    target_name    ct
   <dbl> <chr>         <lgl> <chr>          <chr>       <dbl>
 1   195 I3            FALSE 1. eGFP N=1    CDH1         18.4
 2   196 I4            FALSE 1. eGFP N=1    CDH1         18.3
 3   219 J3            FALSE 1. eGFP N=1    CDH1         18.2
 4   245 K5            FALSE 10. ZEB2 N=3   CDH1         18.6
 5   246 K6            FALSE 10. ZEB2 N=3   CDH1         18.5
 6   269 L5            FALSE 10. ZEB2 N=3   CDH1         18.4
 7   293 M5            FALSE 11. TWIST1 N=3 CDH1         17.8
 8   294 M6            FALSE 11. TWIST1 N=3 CDH1         17.7
 9   317 N5            FALSE 11. TWIST1 N=3 CDH1         17.5
10   341 O5            FALSE 12. SNAI1 N=3  CDH1         17.9
# … with 170 more rows
# ℹ Use `print(n = ...)` to see more rows
…
